403        9l       28w      280c http://192.168.239.107/.hta
403        9l       28w      280c http://192.168.239.107/.hta.txt
403        9l       28w      280c http://192.168.239.107/.hta.html
403        9l       28w      280c http://192.168.239.107/.hta.php
403        9l       28w      280c http://192.168.239.107/.hta.asp
403        9l       28w      280c http://192.168.239.107/.htaccess
403        9l       28w      280c http://192.168.239.107/.hta.aspx
403        9l       28w      280c http://192.168.239.107/.htaccess.txt
403        9l       28w      280c http://192.168.239.107/.hta.jsp
403        9l       28w      280c http://192.168.239.107/.htpasswd
403        9l       28w      280c http://192.168.239.107/.htaccess.html
403        9l       28w      280c http://192.168.239.107/.htpasswd.txt
403        9l       28w      280c http://192.168.239.107/.htaccess.php
403        9l       28w      280c http://192.168.239.107/.htpasswd.html
403        9l       28w      280c http://192.168.239.107/.htaccess.asp
403        9l       28w      280c http://192.168.239.107/.htpasswd.php
403        9l       28w      280c http://192.168.239.107/.htaccess.aspx
403        9l       28w      280c http://192.168.239.107/.htpasswd.asp
403        9l       28w      280c http://192.168.239.107/.htaccess.jsp
403        9l       28w      280c http://192.168.239.107/.htpasswd.aspx
403        9l       28w      280c http://192.168.239.107/.htpasswd.jsp
200      375l      964w    10918c http://192.168.239.107/index.html
200        1l        2w       17c http://192.168.239.107/robots.txt
403        9l       28w      280c http://192.168.239.107/server-status
