403        9l       28w      280c http://192.168.129.136/.php
403        9l       28w      280c http://192.168.129.136/.html
403        9l       28w      280c http://192.168.129.136/.html.txt
403        9l       28w      280c http://192.168.129.136/.html.html
403        9l       28w      280c http://192.168.129.136/.html.php
403        9l       28w      280c http://192.168.129.136/.html.asp
403        9l       28w      280c http://192.168.129.136/.html.aspx
403        9l       28w      280c http://192.168.129.136/.html.jsp
200       75l      208w     3245c http://192.168.129.136/index.php
403        9l       28w      280c http://192.168.129.136/.htm
403        9l       28w      280c http://192.168.129.136/.htm.txt
403        9l       28w      280c http://192.168.129.136/.htm.html
403        9l       28w      280c http://192.168.129.136/.htm.php
403        9l       28w      280c http://192.168.129.136/.htm.asp
403        9l       28w      280c http://192.168.129.136/.htm.aspx
403        9l       28w      280c http://192.168.129.136/.htm.jsp
301        9l       28w      323c http://192.168.129.136/javascript
200       75l      208w     3245c http://192.168.129.136/
403        9l       28w      280c http://192.168.129.136/.htaccess
403        9l       28w      280c http://192.168.129.136/.htaccess.txt
403        9l       28w      280c http://192.168.129.136/.htaccess.html
403        9l       28w      280c http://192.168.129.136/.htaccess.php
403        9l       28w      280c http://192.168.129.136/.htaccess.asp
403        9l       28w      280c http://192.168.129.136/.htaccess.aspx
403        9l       28w      280c http://192.168.129.136/.htaccess.jsp
403        9l       28w      280c http://192.168.129.136/.php3
403        9l       28w      280c http://192.168.129.136/.phtml
403        9l       28w      280c http://192.168.129.136/.htc
403        9l       28w      280c http://192.168.129.136/.htc.txt
403        9l       28w      280c http://192.168.129.136/.htc.html
403        9l       28w      280c http://192.168.129.136/.htc.php
403        9l       28w      280c http://192.168.129.136/.htc.asp
403        9l       28w      280c http://192.168.129.136/.htc.aspx
403        9l       28w      280c http://192.168.129.136/.htc.jsp
403        9l       28w      280c http://192.168.129.136/.php5
403        9l       28w      280c http://192.168.129.136/.html_var_DE
403        9l       28w      280c http://192.168.129.136/.html_var_DE.txt
403        9l       28w      280c http://192.168.129.136/.html_var_DE.html
403        9l       28w      280c http://192.168.129.136/.html_var_DE.php
403        9l       28w      280c http://192.168.129.136/.html_var_DE.asp
403        9l       28w      280c http://192.168.129.136/.html_var_DE.aspx
403        9l       28w      280c http://192.168.129.136/.html_var_DE.jsp
403        9l       28w      280c http://192.168.129.136/.php4
403        9l       28w      280c http://192.168.129.136/server-status
403        9l       28w      280c http://192.168.129.136/.htpasswd
403        9l       28w      280c http://192.168.129.136/.htpasswd.txt
403        9l       28w      280c http://192.168.129.136/.htpasswd.html
403        9l       28w      280c http://192.168.129.136/.htpasswd.php
403        9l       28w      280c http://192.168.129.136/.htpasswd.asp
403        9l       28w      280c http://192.168.129.136/.htpasswd.aspx
403        9l       28w      280c http://192.168.129.136/.htpasswd.jsp
403        9l       28w      280c http://192.168.129.136/.html.
403        9l       28w      280c http://192.168.129.136/.html..txt
403        9l       28w      280c http://192.168.129.136/.html..html
403        9l       28w      280c http://192.168.129.136/.html..php
403        9l       28w      280c http://192.168.129.136/.html..asp
403        9l       28w      280c http://192.168.129.136/.html..aspx
403        9l       28w      280c http://192.168.129.136/.html..jsp
403        9l       28w      280c http://192.168.129.136/.html.html.txt
403        9l       28w      280c http://192.168.129.136/.html.html.html
403        9l       28w      280c http://192.168.129.136/.html.html.php
403        9l       28w      280c http://192.168.129.136/.html.html.asp
403        9l       28w      280c http://192.168.129.136/.html.html.aspx
403        9l       28w      280c http://192.168.129.136/.html.html.jsp
403        9l       28w      280c http://192.168.129.136/.htpasswds
403        9l       28w      280c http://192.168.129.136/.htpasswds.txt
403        9l       28w      280c http://192.168.129.136/.htpasswds.html
403        9l       28w      280c http://192.168.129.136/.htpasswds.php
403        9l       28w      280c http://192.168.129.136/.htpasswds.asp
403        9l       28w      280c http://192.168.129.136/.htpasswds.aspx
403        9l       28w      280c http://192.168.129.136/.htpasswds.jsp
403        9l       28w      280c http://192.168.129.136/.htm.
403        9l       28w      280c http://192.168.129.136/.htm..txt
403        9l       28w      280c http://192.168.129.136/.htm..html
403        9l       28w      280c http://192.168.129.136/.htm..php
403        9l       28w      280c http://192.168.129.136/.htm..asp
403        9l       28w      280c http://192.168.129.136/.htm..aspx
403        9l       28w      280c http://192.168.129.136/.htm..jsp
403        9l       28w      280c http://192.168.129.136/.htmll
403        9l       28w      280c http://192.168.129.136/.htmll.txt
403        9l       28w      280c http://192.168.129.136/.htmll.html
403        9l       28w      280c http://192.168.129.136/.htmll.php
403        9l       28w      280c http://192.168.129.136/.htmll.asp
403        9l       28w      280c http://192.168.129.136/.phps
403        9l       28w      280c http://192.168.129.136/.htmll.aspx
403        9l       28w      280c http://192.168.129.136/.htmll.jsp
403        9l       28w      280c http://192.168.129.136/.html.old
403        9l       28w      280c http://192.168.129.136/.html.old.txt
403        9l       28w      280c http://192.168.129.136/.html.old.html
403        9l       28w      280c http://192.168.129.136/.html.old.php
403        9l       28w      280c http://192.168.129.136/.html.old.asp
403        9l       28w      280c http://192.168.129.136/.html.old.aspx
403        9l       28w      280c http://192.168.129.136/.html.old.jsp
403        9l       28w      280c http://192.168.129.136/.ht
403        9l       28w      280c http://192.168.129.136/.html.bak
403        9l       28w      280c http://192.168.129.136/.ht.txt
403        9l       28w      280c http://192.168.129.136/.html.bak.txt
403        9l       28w      280c http://192.168.129.136/.html.bak.html
403        9l       28w      280c http://192.168.129.136/.ht.html
403        9l       28w      280c http://192.168.129.136/.html.bak.php
403        9l       28w      280c http://192.168.129.136/.ht.php
403        9l       28w      280c http://192.168.129.136/.html.bak.asp
403        9l       28w      280c http://192.168.129.136/.ht.asp
403        9l       28w      280c http://192.168.129.136/.html.bak.aspx
403        9l       28w      280c http://192.168.129.136/.ht.aspx
403        9l       28w      280c http://192.168.129.136/.html.bak.jsp
403        9l       28w      280c http://192.168.129.136/.ht.jsp
403        9l       28w      280c http://192.168.129.136/.htm.htm
403        9l       28w      280c http://192.168.129.136/.htm.htm.txt
403        9l       28w      280c http://192.168.129.136/.htm.htm.html
403        9l       28w      280c http://192.168.129.136/.htm.htm.php
403        9l       28w      280c http://192.168.129.136/.htm.htm.asp
403        9l       28w      280c http://192.168.129.136/.htm.htm.aspx
403        9l       28w      280c http://192.168.129.136/.htm.htm.jsp
401       14l       54w      462c http://192.168.129.136/nagios
403        9l       28w      280c http://192.168.129.136/.hta
403        9l       28w      280c http://192.168.129.136/.htgroup
403        9l       28w      280c http://192.168.129.136/.hta.txt
403        9l       28w      280c http://192.168.129.136/.htgroup.txt
403        9l       28w      280c http://192.168.129.136/.html1
403        9l       28w      280c http://192.168.129.136/.hta.html
403        9l       28w      280c http://192.168.129.136/.html1.txt
403        9l       28w      280c http://192.168.129.136/.htgroup.html
403        9l       28w      280c http://192.168.129.136/.hta.php
403        9l       28w      280c http://192.168.129.136/.html1.html
403        9l       28w      280c http://192.168.129.136/.htgroup.php
403        9l       28w      280c http://192.168.129.136/.hta.asp
403        9l       28w      280c http://192.168.129.136/.html1.php
403        9l       28w      280c http://192.168.129.136/.htgroup.asp
403        9l       28w      280c http://192.168.129.136/.hta.aspx
403        9l       28w      280c http://192.168.129.136/.html1.asp
403        9l       28w      280c http://192.168.129.136/.htgroup.aspx
403        9l       28w      280c http://192.168.129.136/.hta.jsp
403        9l       28w      280c http://192.168.129.136/.htgroup.jsp
403        9l       28w      280c http://192.168.129.136/.html1.aspx
403        9l       28w      280c http://192.168.129.136/.html1.jsp
403        9l       28w      280c http://192.168.129.136/.html.LCK
403        9l       28w      280c http://192.168.129.136/.html.printable
403        9l       28w      280c http://192.168.129.136/.html.LCK.txt
403        9l       28w      280c http://192.168.129.136/.html.printable.txt
403        9l       28w      280c http://192.168.129.136/.html.printable.html
403        9l       28w      280c http://192.168.129.136/.html.LCK.html
403        9l       28w      280c http://192.168.129.136/.html.printable.php
403        9l       28w      280c http://192.168.129.136/.html.LCK.php
403        9l       28w      280c http://192.168.129.136/.html.printable.asp
403        9l       28w      280c http://192.168.129.136/.html.LCK.asp
403        9l       28w      280c http://192.168.129.136/.html.printable.aspx
403        9l       28w      280c http://192.168.129.136/.html.LCK.aspx
403        9l       28w      280c http://192.168.129.136/.html.printable.jsp
403        9l       28w      280c http://192.168.129.136/.html.LCK.jsp
403        9l       28w      280c http://192.168.129.136/.htm.LCK
403        9l       28w      280c http://192.168.129.136/.htm.LCK.txt
403        9l       28w      280c http://192.168.129.136/.htm.LCK.html
403        9l       28w      280c http://192.168.129.136/.htm.LCK.php
403        9l       28w      280c http://192.168.129.136/.htm.LCK.asp
403        9l       28w      280c http://192.168.129.136/.htm.LCK.aspx
403        9l       28w      280c http://192.168.129.136/.htm.LCK.jsp
403        9l       28w      280c http://192.168.129.136/.htaccess.bak
403        9l       28w      280c http://192.168.129.136/.htmls
403        9l       28w      280c http://192.168.129.136/.htaccess.bak.txt
403        9l       28w      280c http://192.168.129.136/.html.php.txt
403        9l       28w      280c http://192.168.129.136/.htmls.txt
403        9l       28w      280c http://192.168.129.136/.htaccess.bak.html
403        9l       28w      280c http://192.168.129.136/.htx
403        9l       28w      280c http://192.168.129.136/.htaccess.bak.php
403        9l       28w      280c http://192.168.129.136/.htmls.html
403        9l       28w      280c http://192.168.129.136/.html.php.html
403        9l       28w      280c http://192.168.129.136/.htx.txt
403        9l       28w      280c http://192.168.129.136/.html.php.php
403        9l       28w      280c http://192.168.129.136/.htmls.php
403        9l       28w      280c http://192.168.129.136/.htaccess.bak.asp
403        9l       28w      280c http://192.168.129.136/.htx.html
403        9l       28w      280c http://192.168.129.136/.html.php.asp
403        9l       28w      280c http://192.168.129.136/.htaccess.bak.aspx
403        9l       28w      280c http://192.168.129.136/.htmls.asp
403        9l       28w      280c http://192.168.129.136/.htx.php
403        9l       28w      280c http://192.168.129.136/.html.php.aspx
403        9l       28w      280c http://192.168.129.136/.htaccess.bak.jsp
403        9l       28w      280c http://192.168.129.136/.htmls.aspx
403        9l       28w      280c http://192.168.129.136/.htx.asp
403        9l       28w      280c http://192.168.129.136/.html.php.jsp
403        9l       28w      280c http://192.168.129.136/.htmls.jsp
403        9l       28w      280c http://192.168.129.136/.htx.aspx
403        9l       28w      280c http://192.168.129.136/.htx.jsp
403        9l       28w      280c http://192.168.129.136/.htlm
403        9l       28w      280c http://192.168.129.136/.htm2
403        9l       28w      280c http://192.168.129.136/.html-
403        9l       28w      280c http://192.168.129.136/.htlm.txt
403        9l       28w      280c http://192.168.129.136/.htuser
403        9l       28w      280c http://192.168.129.136/.html-.txt
403        9l       28w      280c http://192.168.129.136/.htm2.txt
403        9l       28w      280c http://192.168.129.136/.htlm.html
403        9l       28w      280c http://192.168.129.136/.htuser.txt
403        9l       28w      280c http://192.168.129.136/.htm2.html
403        9l       28w      280c http://192.168.129.136/.html-.html
403        9l       28w      280c http://192.168.129.136/.htlm.php
403        9l       28w      280c http://192.168.129.136/.htuser.html
403        9l       28w      280c http://192.168.129.136/.htm2.php
403        9l       28w      280c http://192.168.129.136/.html-.php
403        9l       28w      280c http://192.168.129.136/.htlm.asp
403        9l       28w      280c http://192.168.129.136/.htuser.php
403        9l       28w      280c http://192.168.129.136/.htm2.asp
403        9l       28w      280c http://192.168.129.136/.html-.asp
403        9l       28w      280c http://192.168.129.136/.htlm.aspx
403        9l       28w      280c http://192.168.129.136/.htuser.asp
403        9l       28w      280c http://192.168.129.136/.htm2.aspx
403        9l       28w      280c http://192.168.129.136/.html-.aspx
403        9l       28w      280c http://192.168.129.136/.htlm.jsp
403        9l       28w      280c http://192.168.129.136/.htuser.aspx
403        9l       28w      280c http://192.168.129.136/.htm2.jsp
403        9l       28w      280c http://192.168.129.136/.html-.jsp
403        9l       28w      280c http://192.168.129.136/.htuser.jsp
403        9l       28w      280c http://192.168.129.136/.htacess
403        9l       28w      280c http://192.168.129.136/.htm.d
403        9l       28w      280c http://192.168.129.136/.htacess.txt
403        9l       28w      280c http://192.168.129.136/.htacess.html
403        9l       28w      280c http://192.168.129.136/.htm.d.txt
403        9l       28w      280c http://192.168.129.136/.htacess.php
403        9l       28w      280c http://192.168.129.136/.htm.d.html
403        9l       28w      280c http://192.168.129.136/.htm.html.txt
403        9l       28w      280c http://192.168.129.136/.htacess.asp
403        9l       28w      280c http://192.168.129.136/.htm.d.php
403        9l       28w      280c http://192.168.129.136/.htm.html.html
403        9l       28w      280c http://192.168.129.136/.htacess.aspx
403        9l       28w      280c http://192.168.129.136/.htm.d.asp
403        9l       28w      280c http://192.168.129.136/.htm.old
403        9l       28w      280c http://192.168.129.136/.htm.html.php
403        9l       28w      280c http://192.168.129.136/.html.orig
403        9l       28w      280c http://192.168.129.136/.htacess.jsp
403        9l       28w      280c http://192.168.129.136/.html-1
403        9l       28w      280c http://192.168.129.136/.html.sav
403        9l       28w      280c http://192.168.129.136/.html_
403        9l       28w      280c http://192.168.129.136/.html_files
403        9l       28w      280c http://192.168.129.136/.htm.d.aspx
403        9l       28w      280c http://192.168.129.136/.htm.html.asp
403        9l       28w      280c http://192.168.129.136/.htm.old.txt
403        9l       28w      280c http://192.168.129.136/.html-1.txt
403        9l       28w      280c http://192.168.129.136/.html.orig.txt
403        9l       28w      280c http://192.168.129.136/.html.sav.txt
403        9l       28w      280c http://192.168.129.136/.htm.d.jsp
403        9l       28w      280c http://192.168.129.136/.html_files.txt
403        9l       28w      280c http://192.168.129.136/.html_.txt
403        9l       28w      280c http://192.168.129.136/.htmlprint
403        9l       28w      280c http://192.168.129.136/.htmlpar
403        9l       28w      280c http://192.168.129.136/.htm.old.html
403        9l       28w      280c http://192.168.129.136/.htm.html.aspx
403        9l       28w      280c http://192.168.129.136/.html-1.html
403        9l       28w      280c http://192.168.129.136/.html.orig.html
403        9l       28w      280c http://192.168.129.136/.html.sav.html
403        9l       28w      280c http://192.168.129.136/.hts
403        9l       28w      280c http://192.168.129.136/.html_files.html
403        9l       28w      280c http://192.168.129.136/.htmlprint.txt
403        9l       28w      280c http://192.168.129.136/.htmlpar.txt
403        9l       28w      280c http://192.168.129.136/.html_.html
403        9l       28w      280c http://192.168.129.136/.htm.old.php
403        9l       28w      280c http://192.168.129.136/.htm.html.jsp
403        9l       28w      280c http://192.168.129.136/.html.orig.php
403        9l       28w      280c http://192.168.129.136/.html-1.php
403        9l       28w      280c http://192.168.129.136/.html.sav.php
403        9l       28w      280c http://192.168.129.136/.html_.php
403        9l       28w      280c http://192.168.129.136/.htmlprint.html
403        9l       28w      280c http://192.168.129.136/.html_files.php
403        9l       28w      280c http://192.168.129.136/.hts.txt
403        9l       28w      280c http://192.168.129.136/.htmlpar.html
403        9l       28w      280c http://192.168.129.136/.htm.old.asp
403        9l       28w      280c http://192.168.129.136/.html.sav.asp
403        9l       28w      280c http://192.168.129.136/.html.orig.asp
403        9l       28w      280c http://192.168.129.136/.html-1.asp
403        9l       28w      280c http://192.168.129.136/.htmlprint.php
403        9l       28w      280c http://192.168.129.136/.html_files.asp
403        9l       28w      280c http://192.168.129.136/.htmlpar.php
403        9l       28w      280c http://192.168.129.136/.hts.html
403        9l       28w      280c http://192.168.129.136/.html_.asp
403        9l       28w      280c http://192.168.129.136/.htm.old.aspx
403        9l       28w      280c http://192.168.129.136/.html.sav.aspx
403        9l       28w      280c http://192.168.129.136/.html.orig.aspx
403        9l       28w      280c http://192.168.129.136/.html-1.aspx
403        9l       28w      280c http://192.168.129.136/.html_files.aspx
403        9l       28w      280c http://192.168.129.136/.htmlprint.asp
403        9l       28w      280c http://192.168.129.136/.htm.old.jsp
403        9l       28w      280c http://192.168.129.136/.htmlpar.asp
403        9l       28w      280c http://192.168.129.136/.hts.php
403        9l       28w      280c http://192.168.129.136/.html_.aspx
403        9l       28w      280c http://192.168.129.136/.html.orig.jsp
403        9l       28w      280c http://192.168.129.136/.html_files.jsp
403        9l       28w      280c http://192.168.129.136/.html-1.jsp
403        9l       28w      280c http://192.168.129.136/.htmlprint.aspx
403        9l       28w      280c http://192.168.129.136/.html.sav.jsp
403        9l       28w      280c http://192.168.129.136/.hts.asp
403        9l       28w      280c http://192.168.129.136/.html_.jsp
403        9l       28w      280c http://192.168.129.136/.htmlpar.aspx
403        9l       28w      280c http://192.168.129.136/.htmlpar.jsp
403        9l       28w      280c http://192.168.129.136/.htmlprint.jsp
403        9l       28w      280c http://192.168.129.136/.hts.aspx
403        9l       28w      280c http://192.168.129.136/.hts.jsp
403        9l       28w      280c http://192.168.129.136/.htaccess.old
403        9l       28w      280c http://192.168.129.136/.htaccess.old.txt
403        9l       28w      280c http://192.168.129.136/.htm.bak
403        9l       28w      280c http://192.168.129.136/.htm.rc
403        9l       28w      280c http://192.168.129.136/.htaccess.old.html
403        9l       28w      280c http://192.168.129.136/.htm.bak.txt
403        9l       28w      280c http://192.168.129.136/.htm3
403        9l       28w      280c http://192.168.129.136/.htm.rc.txt
403        9l       28w      280c http://192.168.129.136/.htaccess.old.php
403        9l       28w      280c http://192.168.129.136/.htm.bak.html
403        9l       28w      280c http://192.168.129.136/.htm3.txt
403        9l       28w      280c http://192.168.129.136/.htm.rc.html
403        9l       28w      280c http://192.168.129.136/.htaccess.old.asp
403        9l       28w      280c http://192.168.129.136/.htm.bak.php
403        9l       28w      280c http://192.168.129.136/.htm3.html
403        9l       28w      280c http://192.168.129.136/.htm8
403        9l       28w      280c http://192.168.129.136/.htm.rc.php
403        9l       28w      280c http://192.168.129.136/.htm7
403        9l       28w      280c http://192.168.129.136/.htm5
403        9l       28w      280c http://192.168.129.136/.htaccess.old.aspx
403        9l       28w      280c http://192.168.129.136/.htm_
403        9l       28w      280c http://192.168.129.136/.html--
403        9l       28w      280c http://192.168.129.136/.htm.bak.asp
403        9l       28w      280c http://192.168.129.136/.html-0
403        9l       28w      280c http://192.168.129.136/.htm3.php
403        9l       28w      280c http://192.168.129.136/.htm.rc.asp
403        9l       28w      280c http://192.168.129.136/.htm8.txt
403        9l       28w      280c http://192.168.129.136/.htm7.txt
403        9l       28w      280c http://192.168.129.136/.htaccess.old.jsp
403        9l       28w      280c http://192.168.129.136/.htm5.txt
403        9l       28w      280c http://192.168.129.136/.htm_.txt
403        9l       28w      280c http://192.168.129.136/.html--.txt
403        9l       28w      280c http://192.168.129.136/.htm.bak.aspx
403        9l       28w      280c http://192.168.129.136/.html-0.txt
403        9l       28w      280c http://192.168.129.136/.htm3.asp
403        9l       28w      280c http://192.168.129.136/.htm8.html
403        9l       28w      280c http://192.168.129.136/.htm.rc.aspx
403        9l       28w      280c http://192.168.129.136/.htm7.html
403        9l       28w      280c http://192.168.129.136/.html-2
403        9l       28w      280c http://192.168.129.136/.htm5.html
403        9l       28w      280c http://192.168.129.136/.htm_.html
403        9l       28w      280c http://192.168.129.136/.html--.html
403        9l       28w      280c http://192.168.129.136/.htm.bak.jsp
403        9l       28w      280c http://192.168.129.136/.html-0.html
403        9l       28w      280c http://192.168.129.136/.htm3.aspx
403        9l       28w      280c http://192.168.129.136/.htm.rc.jsp
403        9l       28w      280c http://192.168.129.136/.htm7.php
403        9l       28w      280c http://192.168.129.136/.htm8.php
403        9l       28w      280c http://192.168.129.136/.html-2.txt
403        9l       28w      280c http://192.168.129.136/.htm_.php
403        9l       28w      280c http://192.168.129.136/.htm5.php
403        9l       28w      280c http://192.168.129.136/.html--.php
403        9l       28w      280c http://192.168.129.136/.html-c
403        9l       28w      280c http://192.168.129.136/.html-0.php
403        9l       28w      280c http://192.168.129.136/.htm3.jsp
403        9l       28w      280c http://192.168.129.136/.htm8.asp
403        9l       28w      280c http://192.168.129.136/.html-old
403        9l       28w      280c http://192.168.129.136/.htm7.asp
403        9l       28w      280c http://192.168.129.136/.html-2.html
403        9l       28w      280c http://192.168.129.136/.htm5.asp
403        9l       28w      280c http://192.168.129.136/.htm_.asp
403        9l       28w      280c http://192.168.129.136/.html--.asp
403        9l       28w      280c http://192.168.129.136/.html-c.txt
403        9l       28w      280c http://192.168.129.136/.html-0.asp
403        9l       28w      280c http://192.168.129.136/.html-p
403        9l       28w      280c http://192.168.129.136/.html-old.txt
403        9l       28w      280c http://192.168.129.136/.htm7.aspx
403        9l       28w      280c http://192.168.129.136/.htm8.aspx
403        9l       28w      280c http://192.168.129.136/.html-2.php
403        9l       28w      280c http://192.168.129.136/.htm_.aspx
403        9l       28w      280c http://192.168.129.136/.htm5.aspx
403        9l       28w      280c http://192.168.129.136/.html--.aspx
403        9l       28w      280c http://192.168.129.136/.html-c.html
403        9l       28w      280c http://192.168.129.136/.html-0.aspx
403        9l       28w      280c http://192.168.129.136/.html-p.txt
403        9l       28w      280c http://192.168.129.136/.htm5.jsp
403        9l       28w      280c http://192.168.129.136/.html-old.html
403        9l       28w      280c http://192.168.129.136/.htm8.jsp
403        9l       28w      280c http://192.168.129.136/.htm7.jsp
403        9l       28w      280c http://192.168.129.136/.htm_.jsp
403        9l       28w      280c http://192.168.129.136/.html-2.asp
403        9l       28w      280c http://192.168.129.136/.html--.jsp
403        9l       28w      280c http://192.168.129.136/.html-c.php
403        9l       28w      280c http://192.168.129.136/.html-0.jsp
403        9l       28w      280c http://192.168.129.136/.html-p.html
403        9l       28w      280c http://192.168.129.136/.html.htm
403        9l       28w      280c http://192.168.129.136/.html-old.php
403        9l       28w      280c http://192.168.129.136/.html.none
403        9l       28w      280c http://192.168.129.136/.html.images
403        9l       28w      280c http://192.168.129.136/.html.inc
403        9l       28w      280c http://192.168.129.136/.html-2.aspx
403        9l       28w      280c http://192.168.129.136/.html.pdf
403        9l       28w      280c http://192.168.129.136/.html-c.asp
403        9l       28w      280c http://192.168.129.136/.html.start
403        9l       28w      280c http://192.168.129.136/.html-p.php
403        9l       28w      280c http://192.168.129.136/.html.htm.txt
403        9l       28w      280c http://192.168.129.136/.html-old.asp
403        9l       28w      280c http://192.168.129.136/.html.none.txt
403        9l       28w      280c http://192.168.129.136/.html-2.jsp
403        9l       28w      280c http://192.168.129.136/.html.images.txt
403        9l       28w      280c http://192.168.129.136/.html.inc.txt
403        9l       28w      280c http://192.168.129.136/.html.pdf.txt
403        9l       28w      280c http://192.168.129.136/.html-c.aspx
403        9l       28w      280c http://192.168.129.136/.html.start.txt
403        9l       28w      280c http://192.168.129.136/.html-p.asp
403        9l       28w      280c http://192.168.129.136/.html-old.aspx
403        9l       28w      280c http://192.168.129.136/.html.none.html
403        9l       28w      280c http://192.168.129.136/.html.htm.html
403        9l       28w      280c http://192.168.129.136/.html.images.html
403        9l       28w      280c http://192.168.129.136/.html.inc.html
403        9l       28w      280c http://192.168.129.136/.html.pdf.html
403        9l       28w      280c http://192.168.129.136/.html-c.jsp
403        9l       28w      280c http://192.168.129.136/.html.start.html
403        9l       28w      280c http://192.168.129.136/.html-p.aspx
403        9l       28w      280c http://192.168.129.136/.html.none.php
403        9l       28w      280c http://192.168.129.136/.html-old.jsp
403        9l       28w      280c http://192.168.129.136/.html.htm.php
403        9l       28w      280c http://192.168.129.136/.html.txt.txt
403        9l       28w      280c http://192.168.129.136/.html.images.php
403        9l       28w      280c http://192.168.129.136/.html.inc.php
403        9l       28w      280c http://192.168.129.136/.html.pdf.php
403        9l       28w      280c http://192.168.129.136/.html4
403        9l       28w      280c http://192.168.129.136/.html.start.php
403        9l       28w      280c http://192.168.129.136/.html-p.jsp
403        9l       28w      280c http://192.168.129.136/.html.images.asp
403        9l       28w      280c http://192.168.129.136/.html.txt.html
403        9l       28w      280c http://192.168.129.136/.html.none.asp
403        9l       28w      280c http://192.168.129.136/.html.htm.asp
403        9l       28w      280c http://192.168.129.136/.html5
403        9l       28w      280c http://192.168.129.136/.html.inc.asp
403        9l       28w      280c http://192.168.129.136/.html.pdf.asp
403        9l       28w      280c http://192.168.129.136/.html4.txt
403        9l       28w      280c http://192.168.129.136/.html.start.asp
403        9l       28w      280c http://192.168.129.136/.html7
403        9l       28w      280c http://192.168.129.136/.html.txt.php
403        9l       28w      280c http://192.168.129.136/.html.inc.aspx
403        9l       28w      280c http://192.168.129.136/.html.images.aspx
403        9l       28w      280c http://192.168.129.136/.html.none.aspx
403        9l       28w      280c http://192.168.129.136/.html.htm.aspx
403        9l       28w      280c http://192.168.129.136/.html5.txt
403        9l       28w      280c http://192.168.129.136/.html.pdf.aspx
403        9l       28w      280c http://192.168.129.136/.html4.html
403        9l       28w      280c http://192.168.129.136/.html.start.aspx
403        9l       28w      280c http://192.168.129.136/.html7.txt
403        9l       28w      280c http://192.168.129.136/.html.images.jsp
403        9l       28w      280c http://192.168.129.136/.html.inc.jsp
403        9l       28w      280c http://192.168.129.136/.html.txt.asp
403        9l       28w      280c http://192.168.129.136/.html5.html
403        9l       28w      280c http://192.168.129.136/.html.none.jsp
403        9l       28w      280c http://192.168.129.136/.html.htm.jsp
403        9l       28w      280c http://192.168.129.136/.html4.php
403        9l       28w      280c http://192.168.129.136/.html.pdf.jsp
403        9l       28w      280c http://192.168.129.136/.html.start.jsp
403        9l       28w      280c http://192.168.129.136/.htmlBAK
403        9l       28w      280c http://192.168.129.136/.html7.html
403        9l       28w      280c http://192.168.129.136/.htmla
403        9l       28w      280c http://192.168.129.136/.html.txt.aspx
403        9l       28w      280c http://192.168.129.136/.htmlDolmetschen
403        9l       28w      280c http://192.168.129.136/.html_old
403        9l       28w      280c http://192.168.129.136/.html5.php
403        9l       28w      280c http://192.168.129.136/.htmlc
403        9l       28w      280c http://192.168.129.136/.html4.asp
403        9l       28w      280c http://192.168.129.136/.htmlfeed
403        9l       28w      280c http://192.168.129.136/.html7.php
403        9l       28w      280c http://192.168.129.136/.htmla.txt
403        9l       28w      280c http://192.168.129.136/.htmlBAK.txt
403        9l       28w      280c http://192.168.129.136/.htmlDolmetschen.txt
403        9l       28w      280c http://192.168.129.136/.html_old.txt
403        9l       28w      280c http://192.168.129.136/.html.txt.jsp
403        9l       28w      280c http://192.168.129.136/.html5.asp
403        9l       28w      280c http://192.168.129.136/.htmlc.txt
403        9l       28w      280c http://192.168.129.136/.html4.aspx
403        9l       28w      280c http://192.168.129.136/.htmlfeed.txt
403        9l       28w      280c http://192.168.129.136/.html7.asp
403        9l       28w      280c http://192.168.129.136/.htmlDolmetschen.html
403        9l       28w      280c http://192.168.129.136/.htmla.html
403        9l       28w      280c http://192.168.129.136/.htmlq
403        9l       28w      280c http://192.168.129.136/.htmlBAK.html
403        9l       28w      280c http://192.168.129.136/.html_old.html
403        9l       28w      280c http://192.168.129.136/.html5.aspx
403        9l       28w      280c http://192.168.129.136/.htmlc.html
403        9l       28w      280c http://192.168.129.136/.html4.jsp
403        9l       28w      280c http://192.168.129.136/.htmlfeed.html
403        9l       28w      280c http://192.168.129.136/.html7.aspx
403        9l       28w      280c http://192.168.129.136/.htmlDolmetschen.php
403        9l       28w      280c http://192.168.129.136/.htmla.php
403        9l       28w      280c http://192.168.129.136/.html_old.php
403        9l       28w      280c http://192.168.129.136/.html5.jsp
403        9l       28w      280c http://192.168.129.136/.htmlq.txt
403        9l       28w      280c http://192.168.129.136/.htmlBAK.php
403        9l       28w      280c http://192.168.129.136/.htmlc.php
403        9l       28w      280c http://192.168.129.136/.htmlu
403        9l       28w      280c http://192.168.129.136/.htmlfeed.php
403        9l       28w      280c http://192.168.129.136/.html7.jsp
403        9l       28w      280c http://192.168.129.136/.htmla.asp
403        9l       28w      280c http://192.168.129.136/.html_old.asp
403        9l       28w      280c http://192.168.129.136/.htmlBAK.asp
403        9l       28w      280c http://192.168.129.136/.htmlDolmetschen.asp
403        9l       28w      280c http://192.168.129.136/.htn
403        9l       28w      280c http://192.168.129.136/.htmlq.html
403        9l       28w      280c http://192.168.129.136/.htmlc.asp
403        9l       28w      280c http://192.168.129.136/.htmlu.txt
403        9l       28w      280c http://192.168.129.136/.htmlfeed.asp
403        9l       28w      280c http://192.168.129.136/.htmla.aspx
403        9l       28w      280c http://192.168.129.136/.htn.txt
403        9l       28w      280c http://192.168.129.136/.htmlBAK.aspx
403        9l       28w      280c http://192.168.129.136/.html_old.aspx
403        9l       28w      280c http://192.168.129.136/.htmlDolmetschen.aspx
403        9l       28w      280c http://192.168.129.136/.htmlq.php
403        9l       28w      280c http://192.168.129.136/.htmlc.aspx
403        9l       28w      280c http://192.168.129.136/.htmlu.html
403        9l       28w      280c http://192.168.129.136/.htmlfeed.aspx
403        9l       28w      280c http://192.168.129.136/.htn.html
403        9l       28w      280c http://192.168.129.136/.htmlq.asp
403        9l       28w      280c http://192.168.129.136/.html_old.jsp
403        9l       28w      280c http://192.168.129.136/.htmlDolmetschen.jsp
403        9l       28w      280c http://192.168.129.136/.htmla.jsp
403        9l       28w      280c http://192.168.129.136/.htmlBAK.jsp
403        9l       28w      280c http://192.168.129.136/.htmlu.php
403        9l       28w      280c http://192.168.129.136/.htmlc.jsp
403        9l       28w      280c http://192.168.129.136/.htmlfeed.jsp
403        9l       28w      280c http://192.168.129.136/.htn.php
403        9l       28w      280c http://192.168.129.136/.htmlq.aspx
403        9l       28w      280c http://192.168.129.136/.htmlu.asp
403        9l       28w      280c http://192.168.129.136/.htmlq.jsp
403        9l       28w      280c http://192.168.129.136/.htn.asp
403        9l       28w      280c http://192.168.129.136/.htmlu.aspx
403        9l       28w      280c http://192.168.129.136/.htn.aspx
403        9l       28w      280c http://192.168.129.136/.htmlu.jsp
403        9l       28w      280c http://192.168.129.136/.htn.jsp
403        9l       28w      280c http://192.168.129.136/.pht
