HTTP/1.1 404 Not Found
Date: Mon, 13 Sep 2021 18:59:42 GMT
Server: Apache/2.4.38 (Debian)
Content-Length: 277
Content-Type: text/html; charset=iso-8859-1

<!DOCTYPE HTML PUBLIC "-//IETF//DTD HTML 2.0//EN">
<html><head>
<title>404 Not Found</title>
</head><body>
<h1>Not Found</h1>
<p>The requested URL was not found on this server.</p>
<hr>
<address>Apache/2.4.38 (Debian) Server at 192.168.239.128 Port 80</address>
</body></html>
