403        9l       28w      279c http://192.168.149.35/.hta
403        9l       28w      279c http://192.168.149.35/.hta.txt
403        9l       28w      279c http://192.168.149.35/.htaccess
403        9l       28w      279c http://192.168.149.35/.htpasswd
403        9l       28w      279c http://192.168.149.35/.hta.html
403        9l       28w      279c http://192.168.149.35/.htaccess.txt
403        9l       28w      279c http://192.168.149.35/.htpasswd.txt
403        9l       28w      279c http://192.168.149.35/.hta.php
403        9l       28w      279c http://192.168.149.35/.htpasswd.html
403        9l       28w      279c http://192.168.149.35/.htaccess.html
403        9l       28w      279c http://192.168.149.35/.hta.asp
403        9l       28w      279c http://192.168.149.35/.htaccess.php
403        9l       28w      279c http://192.168.149.35/.htpasswd.php
403        9l       28w      279c http://192.168.149.35/.hta.aspx
403        9l       28w      279c http://192.168.149.35/.htaccess.asp
403        9l       28w      279c http://192.168.149.35/.htpasswd.asp
403        9l       28w      279c http://192.168.149.35/.hta.jsp
403        9l       28w      279c http://192.168.149.35/.htpasswd.aspx
403        9l       28w      279c http://192.168.149.35/.htaccess.aspx
403        9l       28w      279c http://192.168.149.35/.htpasswd.jsp
403        9l       28w      279c http://192.168.149.35/.htaccess.jsp
200      375l      964w    10918c http://192.168.149.35/index.html
200     1170l     5860w        0c http://192.168.149.35/phpinfo.php
200        1l        1w        9c http://192.168.149.35/robots.txt
403        9l       28w      279c http://192.168.149.35/server-status
