
[00;31m#########################################################[00m
[00;31m#[00m [00;33mLocal Linux Enumeration & Privilege Escalation Script[00m [00;31m#[00m
[00;31m#########################################################[00m
[00;33m# www.rebootuser.com[00m
[00;33m# version 0.982[00m

[-] Debug Info
[00;33m[+] Thorough tests = Disabled[00m


[00;33mScan started at:
Sat Nov  6 14:25:45 BRST 2021
[00m

[00;33m### SYSTEM ##############################################[00m
[00;31m[-] Kernel information:[00m
Linux lampiao 4.4.0-31-generic #50~14.04.1-Ubuntu SMP Wed Jul 13 01:06:37 UTC 2016 i686 athlon i686 GNU/Linux


[00;31m[-] Kernel information (continued):[00m
Linux version 4.4.0-31-generic (buildd@lgw01-01) (gcc version 4.8.4 (Ubuntu 4.8.4-2ubuntu1~14.04.3) ) #50~14.04.1-Ubuntu SMP Wed Jul 13 01:06:37 UTC 2016


[00;31m[-] Specific release information:[00m
DISTRIB_ID=Ubuntu
DISTRIB_RELEASE=14.04
DISTRIB_CODENAME=trusty
DISTRIB_DESCRIPTION="Ubuntu 14.04.5 LTS"
NAME="Ubuntu"
VERSION="14.04.5 LTS, Trusty Tahr"
ID=ubuntu
ID_LIKE=debian
PRETTY_NAME="Ubuntu 14.04.5 LTS"
VERSION_ID="14.04"
HOME_URL="http://www.ubuntu.com/"
SUPPORT_URL="http://help.ubuntu.com/"
BUG_REPORT_URL="http://bugs.launchpad.net/ubuntu/"


[00;31m[-] Hostname:[00m
lampiao


[00;33m### USER/GROUP ##########################################[00m
[00;31m[-] Current user/group info:[00m
uid=1000(tiago) gid=1000(tiago) groups=1000(tiago)


[00;31m[-] Users that have previously logged onto the system:[00m
Username         Port     From             Latest
root             tty1                      Wed Jul 22 14:23:39 -0300 2020
tiago            pts/1    192.168.49.129   Sat Nov  6 13:57:50 -0200 2021


[00;31m[-] Who else is logged on:[00m
 14:25:45 up  5:11,  1 user,  load average: 0.34, 0.15, 0.05
USER     TTY      FROM             LOGIN@   IDLE   JCPU   PCPU WHAT
tiago    pts/1    192.168.49.129   13:57    9.00s  0.12s  0.00s /bin/bash ./LinEnum.sh


[00;31m[-] Group memberships:[00m
uid=0(root) gid=0(root) groups=0(root)
uid=105(sshd) gid=65534(nogroup) groups=65534(nogroup)
uid=1000(tiago) gid=1000(tiago) groups=1000(tiago)
uid=1(daemon) gid=1(daemon) groups=1(daemon)
uid=2(bin) gid=2(bin) groups=2(bin)
uid=3(sys) gid=3(sys) groups=3(sys)
uid=4(sync) gid=65534(nogroup) groups=65534(nogroup)
uid=5(games) gid=60(games) groups=60(games)
uid=6(man) gid=12(man) groups=12(man)
uid=7(lp) gid=7(lp) groups=7(lp)
uid=8(mail) gid=8(mail) groups=8(mail)
uid=9(news) gid=9(news) groups=9(news)
uid=10(uucp) gid=10(uucp) groups=10(uucp)
uid=13(proxy) gid=13(proxy) groups=13(proxy)
uid=33(www-data) gid=33(www-data) groups=33(www-data)
uid=34(backup) gid=34(backup) groups=34(backup)
uid=38(list) gid=38(list) groups=38(list)
uid=39(irc) gid=39(irc) groups=39(irc)
uid=41(gnats) gid=41(gnats) groups=41(gnats)
uid=65534(nobody) gid=65534(nogroup) groups=65534(nogroup)
uid=100(libuuid) gid=101(libuuid) groups=101(libuuid)
uid=27(mysql) gid=106(mysql) groups=106(mysql)


[00;33m[+] It looks like we have password hashes in /etc/passwd![00m
root:$6$blDsHpU9$1.jyQg4uduSokEQ9Jgvo.5WkyUW52zP1XPT/PaA54y4y1ozS0WwrYcYUjfLZkBxx85gU2ROt5OpnoR5bDnbJX1:0:0:root:/root:/bin/bash


[00;31m[-] Contents of /etc/passwd:[00m
root:$6$blDsHpU9$1.jyQg4uduSokEQ9Jgvo.5WkyUW52zP1XPT/PaA54y4y1ozS0WwrYcYUjfLZkBxx85gU2ROt5OpnoR5bDnbJX1:0:0:root:/root:/bin/bash
sshd:x:105:65534::/var/run/sshd:/usr/sbin/nologin
tiago:x:1000:1000:tiago,,,:/home/tiago:/bin/bash
daemon:x:1:1:daemon:/usr/sbin:/usr/sbin/nologin
bin:x:2:2:bin:/bin:/usr/sbin/nologin
sys:x:3:3:sys:/dev:/usr/sbin/nologin
sync:x:4:65534:sync:/bin:/bin/sync
games:x:5:60:games:/usr/games:/usr/sbin/nologin
man:x:6:12:man:/var/cache/man:/usr/sbin/nologin
lp:x:7:7:lp:/var/spool/lpd:/usr/sbin/nologin
mail:x:8:8:mail:/var/mail:/usr/sbin/nologin
news:x:9:9:news:/var/spool/news:/usr/sbin/nologin
uucp:x:10:10:uucp:/var/spool/uucp:/usr/sbin/nologin
proxy:x:13:13:proxy:/bin:/usr/sbin/nologin
www-data:x:33:33:www-data:/var/www:/usr/sbin/nologin
backup:x:34:34:backup:/var/backups:/usr/sbin/nologin
list:x:38:38:Mailing List Manager:/var/list:/usr/sbin/nologin
irc:x:39:39:ircd:/var/run/ircd:/usr/sbin/nologin
gnats:x:41:41:Gnats Bug-Reporting System (admin):/var/lib/gnats:/usr/sbin/nologin
nobody:x:65534:65534:nobody:/nonexistent:/usr/sbin/nologin
libuuid:x:100:101::/:
mysql:x:27:106:Mysql Server:/var/lib/mysql/:/bin/bash


[00;31m[-] Super user account(s):[00m
root


[00;31m[-] Are permissions on /home directories lax:[00m
total 12K
drwxr-xr-x  3 root  root  4.0K Apr 19  2018 .
drwxr-xr-x 21 root  root  4.0K Feb 20  2020 ..
drwxr-xr-x  5 tiago tiago 4.0K Nov  6 14:25 tiago


[00;31m[-] Root is allowed to login via SSH:[00m
PermitRootLogin yes


[00;33m### ENVIRONMENTAL #######################################[00m
[00;31m[-] Environment information:[00m
SHELL=/bin/bash
TERM=screen
SSH_CLIENT=192.168.49.129 35606 22
SSH_TTY=/dev/pts/1
USER=tiago
PATH=/usr/local/sbin:/usr/local/bin:/usr/sbin:/usr/bin:/sbin:/bin:/usr/games:/usr/local/games
MAIL=/var/mail/tiago
PWD=/home/tiago
LANG=en_US.UTF-8
HOME=/home/tiago
SHLVL=2
LOGNAME=tiago
SSH_CONNECTION=192.168.49.129 35606 192.168.129.48 22
LESSOPEN=| /usr/bin/lesspipe %s
LESSCLOSE=/usr/bin/lesspipe %s %s
_=/usr/bin/env


[00;31m[-] Path information:[00m
/usr/local/sbin:/usr/local/bin:/usr/sbin:/usr/bin:/sbin:/bin:/usr/games:/usr/local/games
drwxr-xr-x 2 root root  4096 Apr 19  2018 /bin
drwxr-xr-x 2 root root  4096 Feb 21  2020 /sbin
drwxr-xr-x 2 root root 24576 Jul 14  2020 /usr/bin
drwxr-xr-x 2 root root  4096 Apr 10  2014 /usr/games
drwxr-xr-x 2 root root  4096 Aug  3  2016 /usr/local/bin
drwxr-xr-x 2 root root  4096 Aug  3  2016 /usr/local/games
drwxr-xr-x 2 root root  4096 Aug  3  2016 /usr/local/sbin
drwxr-xr-x 2 root root  4096 Jul 14  2020 /usr/sbin


[00;31m[-] Available shells:[00m
# /etc/shells: valid login shells
/bin/sh
/bin/dash
/bin/bash
/bin/rbash
/usr/bin/tmux
/usr/bin/screen


[00;31m[-] Current umask value:[00m
0002
u=rwx,g=rwx,o=rx


[00;31m[-] umask value as specified in /etc/login.defs:[00m
UMASK		022


[00;31m[-] Password and storage information:[00m
PASS_MAX_DAYS	99999
PASS_MIN_DAYS	0
PASS_WARN_AGE	7
ENCRYPT_METHOD SHA512


[00;33m### JOBS/TASKS ##########################################[00m
[00;31m[-] Cron jobs:[00m
-rw-r--r-- 1 root root  722 Feb  9  2013 /etc/crontab

/etc/cron.d:
total 16
drwxr-xr-x  2 root root 4096 Apr 19  2018 .
drwxr-xr-x 95 root root 4096 Nov  9  2020 ..
-rw-r--r--  1 root root  510 Jul 28  2016 php5
-rw-r--r--  1 root root  102 Feb  9  2013 .placeholder

/etc/cron.daily:
total 76
drwxr-xr-x  2 root root  4096 Apr 19  2018 .
drwxr-xr-x 95 root root  4096 Nov  9  2020 ..
-rwxr-xr-x  1 root root   625 Jul 15  2016 apache2
-rwxr-xr-x  1 root root   376 Apr  4  2014 apport
-rwxr-xr-x  1 root root 15481 Apr 10  2014 apt
-rwxr-xr-x  1 root root   314 Feb 17  2014 aptitude
-rwxr-xr-x  1 root root   355 Jun  4  2013 bsdmainutils
-rwxr-xr-x  1 root root   256 Mar  7  2014 dpkg
-rwxr-xr-x  1 root root   372 Jan 22  2014 logrotate
-rwxr-xr-x  1 root root  1261 Sep 23  2014 man-db
-rwxr-xr-x  1 root root   435 Jun 20  2013 mlocate
-rwxr-xr-x  1 root root   249 Feb 16  2014 passwd
-rw-r--r--  1 root root   102 Feb  9  2013 .placeholder
-rwxr-xr-x  1 root root  2417 May 13  2013 popularity-contest
-rwxr-xr-x  1 root root   214 Oct  6  2014 update-notifier-common
-rwxr-xr-x  1 root root   328 Jul 18  2014 upstart

/etc/cron.hourly:
total 12
drwxr-xr-x  2 root root 4096 Apr 19  2018 .
drwxr-xr-x 95 root root 4096 Nov  9  2020 ..
-rw-r--r--  1 root root  102 Feb  9  2013 .placeholder

/etc/cron.monthly:
total 12
drwxr-xr-x  2 root root 4096 Apr 19  2018 .
drwxr-xr-x 95 root root 4096 Nov  9  2020 ..
-rw-r--r--  1 root root  102 Feb  9  2013 .placeholder

/etc/cron.weekly:
total 28
drwxr-xr-x  2 root root 4096 Apr 19  2018 .
drwxr-xr-x 95 root root 4096 Nov  9  2020 ..
-rwxr-xr-x  1 root root  730 Feb 23  2014 apt-xapian-index
-rwxr-xr-x  1 root root  427 Apr 16  2014 fstrim
-rwxr-xr-x  1 root root  771 Sep 23  2014 man-db
-rw-r--r--  1 root root  102 Feb  9  2013 .placeholder
-rwxr-xr-x  1 root root  211 Oct  6  2014 update-notifier-common


[00;31m[-] Crontab contents:[00m
# /etc/crontab: system-wide crontab
# Unlike any other crontab you don't have to run the `crontab'
# command to install the new version when you edit this file
# and files in /etc/cron.d. These files also have username fields,
# that none of the other crontabs do.

SHELL=/bin/sh
PATH=/usr/local/sbin:/usr/local/bin:/sbin:/bin:/usr/sbin:/usr/bin

# m h dom mon dow user	command
17 *	* * *	root    cd / && run-parts --report /etc/cron.hourly
25 6	* * *	root	test -x /usr/sbin/anacron || ( cd / && run-parts --report /etc/cron.daily )
47 6	* * 7	root	test -x /usr/sbin/anacron || ( cd / && run-parts --report /etc/cron.weekly )
52 6	1 * *	root	test -x /usr/sbin/anacron || ( cd / && run-parts --report /etc/cron.monthly )
#


[00;33m### NETWORKING  ##########################################[00m
[00;31m[-] Network and IP info:[00m
eth0      Link encap:Ethernet  HWaddr 00:50:56:bf:92:9c  
          inet addr:192.168.129.48  Bcast:192.168.129.255  Mask:255.255.255.0
          inet6 addr: fe80::250:56ff:febf:929c/64 Scope:Link
          UP BROADCAST RUNNING MULTICAST  MTU:1500  Metric:1
          RX packets:1380434 errors:0 dropped:0 overruns:0 frame:0
          TX packets:1363396 errors:0 dropped:0 overruns:0 carrier:0
          collisions:0 txqueuelen:1000 
          RX bytes:214436905 (214.4 MB)  TX bytes:628403070 (628.4 MB)

lo        Link encap:Local Loopback  
          inet addr:127.0.0.1  Mask:255.0.0.0
          inet6 addr: ::1/128 Scope:Host
          UP LOOPBACK RUNNING  MTU:65536  Metric:1
          RX packets:1089 errors:0 dropped:0 overruns:0 frame:0
          TX packets:1089 errors:0 dropped:0 overruns:0 carrier:0
          collisions:0 txqueuelen:1 
          RX bytes:108472 (108.4 KB)  TX bytes:108472 (108.4 KB)


[00;31m[-] ARP history:[00m
? (192.168.129.254) at 00:50:56:9f:d0:96 [ether] on eth0


[00;31m[-] Nameserver(s):[00m
nameserver 192.168.129.254


[00;31m[-] Default route:[00m
default         192.168.129.254 0.0.0.0         UG    0      0        0 eth0


[00;31m[-] Listening TCP:[00m
Active Internet connections (only servers)
Proto Recv-Q Send-Q Local Address           Foreign Address         State       PID/Program name
tcp        0      0 127.0.0.1:3306          0.0.0.0:*               LISTEN      -               
tcp        0      0 0.0.0.0:80              0.0.0.0:*               LISTEN      -               
tcp        0      0 0.0.0.0:22              0.0.0.0:*               LISTEN      -               
tcp6       0      0 :::1898                 :::*                    LISTEN      -               
tcp6       0      0 :::22                   :::*                    LISTEN      -               


[00;31m[-] Listening UDP:[00m
Active Internet connections (only servers)
Proto Recv-Q Send-Q Local Address           Foreign Address         State       PID/Program name


[00;33m### SERVICES #############################################[00m
[00;31m[-] Running processes:[00m
USER       PID %CPU %MEM    VSZ   RSS TTY      STAT START   TIME COMMAND
root         1  0.0  0.5   4200  3012 ?        Ss   09:14   0:01 /sbin/init
root         2  0.0  0.0      0     0 ?        S    09:14   0:00 [kthreadd]
root         3  0.0  0.0      0     0 ?        S    09:14   0:01 [ksoftirqd/0]
root         4  0.0  0.0      0     0 ?        S    09:14   0:00 [kworker/0:0]
root         5  0.0  0.0      0     0 ?        S<   09:14   0:00 [kworker/0:0H]
root         7  0.0  0.0      0     0 ?        S    09:14   0:04 [rcu_sched]
root         8  0.0  0.0      0     0 ?        S    09:14   0:00 [rcu_bh]
root         9  0.0  0.0      0     0 ?        S    09:14   0:00 [migration/0]
root        10  0.0  0.0      0     0 ?        S    09:14   0:00 [watchdog/0]
root        11  0.0  0.0      0     0 ?        S    09:14   0:00 [kdevtmpfs]
root        12  0.0  0.0      0     0 ?        S<   09:14   0:00 [netns]
root        13  0.0  0.0      0     0 ?        S<   09:14   0:00 [perf]
root        14  0.0  0.0      0     0 ?        S    09:14   0:00 [khungtaskd]
root        15  0.0  0.0      0     0 ?        S<   09:14   0:00 [writeback]
root        16  0.0  0.0      0     0 ?        SN   09:14   0:00 [ksmd]
root        17  0.0  0.0      0     0 ?        S<   09:14   0:00 [crypto]
root        18  0.0  0.0      0     0 ?        S<   09:14   0:00 [kintegrityd]
root        19  0.0  0.0      0     0 ?        S<   09:14   0:00 [bioset]
root        20  0.0  0.0      0     0 ?        S<   09:14   0:00 [kblockd]
root        21  0.0  0.0      0     0 ?        S<   09:14   0:00 [ata_sff]
root        22  0.0  0.0      0     0 ?        S<   09:14   0:00 [md]
root        23  0.0  0.0      0     0 ?        S<   09:14   0:00 [devfreq_wq]
root        24  0.0  0.0      0     0 ?        S    09:14   0:01 [kworker/u2:1]
root        25  0.0  0.0      0     0 ?        S    09:14   0:01 [kworker/0:1]
root        27  0.0  0.0      0     0 ?        S    09:14   0:00 [kswapd0]
root        28  0.0  0.0      0     0 ?        S<   09:14   0:00 [vmstat]
root        29  0.0  0.0      0     0 ?        S    09:14   0:00 [fsnotify_mark]
root        30  0.0  0.0      0     0 ?        S    09:14   0:00 [ecryptfs-kthrea]
root        46  0.0  0.0      0     0 ?        S<   09:14   0:00 [kthrotld]
root        47  0.0  0.0      0     0 ?        S<   09:14   0:00 [acpi_thermal_pm]
root        48  0.0  0.0      0     0 ?        S<   09:14   0:00 [bioset]
root        49  0.0  0.0      0     0 ?        S<   09:14   0:00 [bioset]
root        50  0.0  0.0      0     0 ?        S<   09:14   0:00 [bioset]
root        52  0.0  0.0      0     0 ?        S<   09:14   0:00 [bioset]
root        53  0.0  0.0      0     0 ?        S<   09:14   0:00 [bioset]
root        54  0.0  0.0      0     0 ?        S<   09:14   0:00 [bioset]
root        55  0.0  0.0      0     0 ?        S<   09:14   0:00 [bioset]
root        56  0.0  0.0      0     0 ?        S<   09:14   0:00 [bioset]
root        57  0.0  0.0      0     0 ?        S<   09:14   0:00 [bioset]
root        58  0.0  0.0      0     0 ?        S<   09:14   0:00 [bioset]
root        59  0.0  0.0      0     0 ?        S<   09:14   0:00 [bioset]
root        60  0.0  0.0      0     0 ?        S<   09:14   0:00 [bioset]
root        61  0.0  0.0      0     0 ?        S<   09:14   0:00 [bioset]
root        62  0.0  0.0      0     0 ?        S<   09:14   0:00 [bioset]
root        63  0.0  0.0      0     0 ?        S<   09:14   0:00 [bioset]
root        64  0.0  0.0      0     0 ?        S<   09:14   0:00 [bioset]
root        65  0.0  0.0      0     0 ?        S<   09:14   0:00 [bioset]
root        66  0.0  0.0      0     0 ?        S<   09:14   0:00 [bioset]
root        67  0.0  0.0      0     0 ?        S<   09:14   0:00 [bioset]
root        68  0.0  0.0      0     0 ?        S<   09:14   0:00 [bioset]
root        69  0.0  0.0      0     0 ?        S<   09:14   0:00 [bioset]
root        70  0.0  0.0      0     0 ?        S<   09:14   0:00 [bioset]
root        71  0.0  0.0      0     0 ?        S<   09:14   0:00 [bioset]
root        72  0.0  0.0      0     0 ?        S<   09:14   0:00 [bioset]
root        73  0.0  0.0      0     0 ?        S    09:14   0:00 [scsi_eh_0]
root        74  0.0  0.0      0     0 ?        S<   09:14   0:00 [scsi_tmf_0]
root        75  0.0  0.0      0     0 ?        S    09:14   0:00 [scsi_eh_1]
root        76  0.0  0.0      0     0 ?        S<   09:14   0:00 [scsi_tmf_1]
root        78  0.0  0.0      0     0 ?        S<   09:14   0:00 [ipv6_addrconf]
root        92  0.0  0.0      0     0 ?        S<   09:14   0:00 [deferwq]
root        93  0.0  0.0      0     0 ?        S<   09:14   0:00 [charger_manager]
root        94  0.0  0.0      0     0 ?        S<   09:14   0:00 [bioset]
root       150  0.0  0.0      0     0 ?        S<   09:14   0:00 [kpsmoused]
root       151  0.0  0.0      0     0 ?        S<   09:14   0:00 [mpt_poll_0]
root       152  0.0  0.0      0     0 ?        S<   09:14   0:00 [mpt/0]
root       153  0.0  0.0      0     0 ?        S<   09:14   0:00 [kworker/0:1H]
root       155  0.0  0.0      0     0 ?        S    09:14   0:00 [scsi_eh_2]
root       156  0.0  0.0      0     0 ?        S<   09:14   0:00 [scsi_tmf_2]
root       157  0.0  0.0      0     0 ?        S<   09:14   0:00 [mpt_poll_1]
root       158  0.0  0.0      0     0 ?        S<   09:14   0:00 [bioset]
root       160  0.0  0.0      0     0 ?        S<   09:14   0:00 [mpt/1]
root       174  0.0  0.0      0     0 ?        S    09:14   0:00 [scsi_eh_3]
root       175  0.0  0.0      0     0 ?        S<   09:14   0:00 [scsi_tmf_3]
root       201  0.0  0.0      0     0 ?        S    09:14   0:00 [jbd2/sda1-8]
root       202  0.0  0.0      0     0 ?        S<   09:14   0:00 [ext4-rsv-conver]
root       216  0.0  0.5   3568  2756 ?        Ss   09:14   0:01 /bin/bash /etc/cangaco/lampiao.sh
root       366  0.0  0.3   3028  1880 ?        S    09:14   0:00 upstart-udev-bridge --daemon
root       370  0.0  0.5  12328  2640 ?        Ss   09:14   0:00 /lib/systemd/systemd-udevd --daemon
root       440  0.0  0.6  31936  3236 ?        Ssl  09:14   0:01 rsyslogd
root       455  0.0  0.2   3028  1448 ?        S    09:14   0:00 upstart-file-bridge --daemon
root       551  0.0  0.0      0     0 ?        S<   09:14   0:00 [ttm_swap]
root       681  0.0  0.3   3016  1752 ?        S    09:14   0:00 upstart-socket-bridge --daemon
root       905  0.0  0.3   4660  1872 tty4     Ss+  09:16   0:00 /sbin/getty -8 38400 tty4
root       908  0.0  0.3   4660  1888 tty5     Ss+  09:16   0:00 /sbin/getty -8 38400 tty5
root       913  0.0  0.3   4660  1872 tty2     Ss+  09:16   0:00 /sbin/getty -8 38400 tty2
root       914  0.0  0.3   4660  1804 tty3     Ss+  09:16   0:00 /sbin/getty -8 38400 tty3
root       917  0.0  0.3   4660  1656 tty6     Ss+  09:16   0:00 /sbin/getty -8 38400 tty6
root       951  0.0  0.2   2212  1476 ?        Ss   09:16   0:00 acpid -c /etc/acpi/events -s /var/run/acpid.socket
daemon     952  0.0  0.0   2656   116 ?        Ss   09:16   0:00 atd
root       953  0.0  0.4   3064  2136 ?        Ss   09:16   0:00 cron
mysql     1009  0.0  9.0 322348 45776 ?        Ssl  09:16   0:06 /usr/sbin/mysqld
root      1015  0.0  0.8  43212  4120 ?        Sl   09:16   0:09 /usr/bin/vmtoolsd
root      1110  0.0  3.9 115764 20144 ?        Ss   09:16   0:00 /usr/sbin/apache2 -k start
root      1156  0.0  0.3   4660  1892 tty1     Ss+  09:16   0:00 /sbin/getty -8 38400 tty1
root      1377  0.0  0.0      0     0 ?        S    09:18   0:00 [kauditd]
root      1834  0.0  0.9   7816  4836 ?        Ss   09:19   0:00 /usr/sbin/sshd -D
www-data  9101  0.0  4.2 117364 21692 ?        S    11:29   0:03 /usr/sbin/apache2 -k start
www-data 11754  0.0  4.1 117088 21188 ?        S    12:17   0:00 /usr/sbin/apache2 -k start
www-data 12076  0.0  4.4 116828 22376 ?        S    12:23   0:00 /usr/sbin/apache2 -k start
www-data 12078  0.0  4.1 116828 20772 ?        S    12:23   0:00 /usr/sbin/apache2 -k start
www-data 12079  0.0  4.1 116572 20772 ?        S    12:23   0:00 /usr/sbin/apache2 -k start
www-data 12088  0.0  4.3 117088 21836 ?        S    12:23   0:00 /usr/sbin/apache2 -k start
www-data 12095  0.0  4.1 117088 21220 ?        S    12:23   0:00 /usr/sbin/apache2 -k start
www-data 12101  0.0  4.1 117088 21228 ?        S    12:23   0:00 /usr/sbin/apache2 -k start
www-data 12502  0.0  4.2 117364 21608 ?        S    12:31   0:00 /usr/sbin/apache2 -k start
www-data 12612  0.0  4.1 116828 20996 ?        S    12:33   0:00 /usr/sbin/apache2 -k start
root     18804  0.0  0.0      0     0 ?        S    13:36   0:00 [kworker/u2:2]
root     20897  0.0  1.1   8644  5740 ?        Ss   13:57   0:00 sshd: tiago [priv]  
tiago    20957  0.0  0.8   8644  4312 ?        S    13:57   0:00 sshd: tiago@pts/1   
tiago    20958  0.0  0.9   6812  4760 pts/1    Ss   13:57   0:00 -bash
root     21036  0.0  0.0      0     0 ?        S    13:58   0:00 [kworker/u2:0]
root     25954  0.0  1.1   8500  5676 ?        Ss   14:25   0:00 sshd: unknown [priv]
root     25955  0.0  1.1   8500  5800 ?        Ss   14:25   0:00 sshd: unknown [priv]
sshd     25956  0.0  0.5   7816  2712 ?        S    14:25   0:00 sshd: unknown [net] 
sshd     25957  0.0  0.5   7816  2660 ?        S    14:25   0:00 sshd: unknown [net] 
root     25958  0.0  1.1   8500  5884 ?        Ss   14:25   0:00 sshd: unknown [priv]
root     25959  0.0  1.1   8500  5692 ?        Ss   14:25   0:00 sshd: unknown [priv]
root     25960  0.0  1.0   8500  5556 ?        Ss   14:25   0:00 sshd: unknown [priv]
root     25961  0.0  1.1   8500  5884 ?        Ss   14:25   0:00 sshd: unknown [priv]
sshd     25962  0.0  0.5   7816  2788 ?        S    14:25   0:00 sshd: unknown [net] 
sshd     25963  0.0  0.5   7816  2732 ?        S    14:25   0:00 sshd: unknown [net] 
sshd     25964  0.0  0.5   7816  2708 ?        S    14:25   0:00 sshd: unknown [net] 
sshd     25965  0.0  0.5   7816  2676 ?        S    14:25   0:00 sshd: unknown [net] 
root     25966  0.0  1.1   8500  5600 ?        Ss   14:25   0:00 sshd: unknown [priv]
sshd     25967  0.0  0.5   7816  2708 ?        S    14:25   0:00 sshd: unknown [net] 
root     25968  0.0  1.1   8500  5696 ?        Ss   14:25   0:00 sshd: unknown [priv]
sshd     25969  0.0  0.5   7816  2740 ?        S    14:25   0:00 sshd: unknown [net] 
root     25970  0.0  1.1   8500  5724 ?        Ss   14:25   0:00 sshd: unknown [priv]
sshd     25971  0.0  0.5   7816  2732 ?        S    14:25   0:00 sshd: unknown [net] 
root     25972  0.0  1.1   8500  5820 ?        Ss   14:25   0:00 sshd: unknown [priv]
sshd     25973  0.0  0.5   7816  2724 ?        S    14:25   0:00 sshd: unknown [net] 
tiago    25974  0.0  0.7   6052  3608 pts/1    S+   14:25   0:00 /bin/bash ./LinEnum.sh
tiago    25975  0.0  0.3   4244  1640 pts/1    S+   14:25   0:00 tee linenum.txt
tiago    25976  0.0  0.6   6096  3240 pts/1    S+   14:25   0:00 /bin/bash ./LinEnum.sh
tiago    25977  0.0  0.3   4244  1672 pts/1    S+   14:25   0:00 tee -a
root     25979  0.0  1.0   8500  5544 ?        Ss   14:25   0:00 sshd: unknown [priv]
root     25980  0.0  1.1   8500  5676 ?        Ss   14:25   0:00 sshd: unknown [priv]
sshd     25981  0.0  0.5   7816  2648 ?        S    14:25   0:00 sshd: unknown [net] 
sshd     25982  0.0  0.5   7816  2668 ?        S    14:25   0:00 sshd: unknown [net] 
root     25983  0.0  1.1   8500  5724 ?        Ss   14:25   0:00 sshd: unknown [priv]
sshd     25984  0.0  0.5   7816  2784 ?        S    14:25   0:00 sshd: unknown [net] 
root     25985  0.0  1.1   8500  5696 ?        Ss   14:25   0:00 sshd: unknown [priv]
sshd     25986  0.0  0.5   7816  2728 ?        S    14:25   0:00 sshd: unknown [net] 
root     26062  0.0  0.1   2604   728 ?        S    14:25   0:00 nc -lk 80
root     26063  0.0  0.1   2192   604 ?        S    14:25   0:00 sleep 10
root     26159  0.0  0.2  12324  1172 ?        S    14:25   0:00 /lib/systemd/systemd-udevd --daemon
tiago    26166  0.0  0.5   6080  2612 pts/1    S+   14:25   0:00 /bin/bash ./LinEnum.sh
tiago    26167  0.0  0.4   5228  2336 pts/1    R+   14:25   0:00 ps aux


[00;31m[-] Process binaries and associated permissions (from above list):[00m
964K -rwxr-xr-x 1 root root 964K Oct  7  2014 /bin/bash
232K -rwxr-xr-x 1 root root 230K Feb 25  2016 /lib/systemd/systemd-udevd
 28K -rwxr-xr-x 2 root root  27K Sep  2  2015 /sbin/getty
248K -rwxr-xr-x 1 root root 247K Jul 18  2014 /sbin/init
 40K -rwxr-xr-x 1 root root  39K Feb 21  2018 /usr/bin/vmtoolsd
584K -rwxr-xr-x 1 root root 584K Apr 18  2018 /usr/sbin/apache2
 11M -rwxr-xr-x 1 root root  11M Jul 21  2016 /usr/sbin/mysqld
812K -rwxr-xr-x 1 root root 812K Mar  4  2019 /usr/sbin/sshd


[00;31m[-] /etc/init.d/ binary permissions:[00m
total 200
drwxr-xr-x  2 root root 4096 Jul 14  2020 .
drwxr-xr-x 95 root root 4096 Nov  9  2020 ..
-rwxr-xr-x  1 root root 2243 Apr  3  2014 acpid
-rwxr-xr-x  1 root root 9974 Jan  7  2014 apache2
-rwxr-xr-x  1 root root 4596 Apr 24  2015 apparmor
-rwxr-xr-x  1 root root 2801 May 18  2016 apport
-rwxrwxr-x  1 root root 1071 Sep  8  2013 atd
-rwxr-xr-x  1 root root 1919 Jan 18  2011 console-setup
lrwxrwxrwx  1 root root   21 Apr 19  2018 cron -> /lib/init/upstart-job
-rwxr-xr-x  1 root root 2813 Nov 25  2014 dbus
-rwxr-xr-x  1 root root 1217 Mar  7  2013 dns-clean
lrwxrwxrwx  1 root root   21 Mar 14  2012 friendly-recovery -> /lib/init/upstart-job
-rwxr-xr-x  1 root root 1105 May 13  2015 grub-common
-rwxr-xr-x  1 root root 1329 Mar 12  2014 halt
-rwxr-xr-x  1 root root 1864 Nov 12  2012 irqbalance
-rwxr-xr-x  1 root root 1293 Mar 12  2014 killprocs
-rwxr-xr-x  1 root root 1990 Jan 22  2013 kmod
-rw-r--r--  1 root root    0 Aug  3  2016 .legacy-bootordering
-rwxr-xr-x  1 root root 5491 Feb 19  2014 mysql
-rwxr-xr-x  1 root root 4479 Mar 20  2014 networking
-rwxr-xr-x  1 root root 1581 Feb 17  2016 ondemand
-rwxr-xr-x  1 root root 1466 Feb 15  2018 open-vm-tools
-rwxr-xr-x  1 root root  561 Apr 21  2015 pppd-dns
-rwxr-xr-x  1 root root 1192 May 27  2013 procps
-rwxr-xr-x  1 root root 6120 Mar 12  2014 rc
-rwxr-xr-x  1 root root  782 Mar 12  2014 rc.local
-rwxr-xr-x  1 root root  117 Mar 12  2014 rcS
-rw-r--r--  1 root root 2427 Mar 12  2014 README
-rwxr-xr-x  1 root root  639 Mar 12  2014 reboot
-rwxr-xr-x  1 root root 2918 Jun 13  2014 resolvconf
-rwxr-xr-x  1 root root 4395 Jan 20  2016 rsync
-rwxr-xr-x  1 root root 2913 Dec  4  2013 rsyslog
-rwxr-xr-x  1 root root 1226 Jul 22  2013 screen-cleanup
-rwxr-xr-x  1 root root 3920 Mar 12  2014 sendsigs
-rwxr-xr-x  1 root root  590 Mar 12  2014 single
-rw-r--r--  1 root root 4290 Mar 12  2014 skeleton
-rwxr-xr-x  1 root root 4077 May  2  2014 ssh
-rwxr-xr-x  1 root root  731 Feb  5  2014 sudo
-rwxr-xr-x  1 root root 6173 Apr 14  2014 udev
-rwxr-xr-x  1 root root 2721 Mar 12  2014 umountfs
-rwxr-xr-x  1 root root 2260 Mar 12  2014 umountnfs.sh
-rwxr-xr-x  1 root root 1872 Mar 12  2014 umountroot
-rwxr-xr-x  1 root root 1361 Dec  6  2013 unattended-upgrades
-rwxr-xr-x  1 root root 3111 Mar 12  2014 urandom


[00;31m[-] /etc/init/ config file permissions:[00m
total 340
drwxr-xr-x  2 root root 4096 Jul 14  2020 .
drwxr-xr-x 95 root root 4096 Nov  9  2020 ..
-rw-r--r--  1 root root  320 Apr  3  2014 acpid.conf
-rw-r--r--  1 root root 1582 May 18  2016 apport.conf
-rw-r--r--  1 root root  261 Oct 21  2013 atd.conf
-rw-r--r--  1 root root  328 Feb 21  2014 bootmisc.sh.conf
-rw-r--r--  1 root root  232 Feb 21  2014 checkfs.sh.conf
-rw-r--r--  1 root root  253 Feb 21  2014 checkroot-bootclean.sh.conf
-rw-r--r--  1 root root  307 Feb 21  2014 checkroot.sh.conf
-rw-r--r--  1 root root  266 Apr 11  2014 console.conf
-rw-r--r--  1 root root  250 Oct  8  2012 console-font.conf
-rw-r--r--  1 root root  509 Dec 21  2010 console-setup.conf
-rw-r--r--  1 root root 1122 Apr 11  2014 container-detect.conf
-rw-r--r--  1 root root  356 Apr 11  2014 control-alt-delete.conf
-rw-r--r--  1 root root  297 Feb  9  2013 cron.conf
-rw-r--r--  1 root root  489 Nov 11  2013 dbus.conf
-rw-r--r--  1 root root  273 Nov 19  2010 dmesg.conf
-rw-r--r--  1 root root 1377 Apr 11  2014 failsafe.conf
-rw-r--r--  1 root root  267 Apr 11  2014 flush-early-job-log.conf
-rw-r--r--  1 root root 1247 Mar 14  2012 friendly-recovery.conf
-rw-r--r--  1 root root  284 Jul 23  2013 hostname.conf
-rw-r--r--  1 root root  557 Apr 16  2014 hwclock.conf
-rw-r--r--  1 root root  444 Apr 16  2014 hwclock-save.conf
-rw-r--r--  1 root root  579 Aug 26  2014 irqbalance.conf
-rw-r--r--  1 root root  689 Apr 10  2014 kmod.conf
-rw-r--r--  1 root root   51 Apr 20  2018 lampiao.conf
-rw-r--r--  1 root root  268 Feb 21  2014 mountall-bootclean.sh.conf
-rw-r--r--  1 root root 1232 Feb 21  2014 mountall.conf
-rw-r--r--  1 root root  349 Feb 21  2014 mountall-net.conf
-rw-r--r--  1 root root  261 Feb 21  2014 mountall-reboot.conf
-rw-r--r--  1 root root  311 Feb 21  2014 mountall.sh.conf
-rw-r--r--  1 root root 1201 Feb 21  2014 mountall-shell.conf
-rw-r--r--  1 root root  327 Feb 21  2014 mountdevsubfs.sh.conf
-rw-r--r--  1 root root  405 Feb 21  2014 mounted-debugfs.conf
-rw-r--r--  1 root root  730 Feb 21  2014 mounted-dev.conf
-rw-r--r--  1 root root  480 Feb 21  2014 mounted-proc.conf
-rw-r--r--  1 root root  618 Feb 21  2014 mounted-run.conf
-rw-r--r--  1 root root 1890 Feb 21  2014 mounted-tmp.conf
-rw-r--r--  1 root root  903 Feb 21  2014 mounted-var.conf
-rw-r--r--  1 root root  323 Feb 21  2014 mountkernfs.sh.conf
-rw-r--r--  1 root root  249 Feb 21  2014 mountnfs-bootclean.sh.conf
-rw-r--r--  1 root root  313 Feb 21  2014 mountnfs.sh.conf
-rw-r--r--  1 root root  238 Feb 21  2014 mtab.sh.conf
-rw-r--r--  1 root root 1770 Feb 19  2014 mysql.conf
-rw-r--r--  1 root root 2493 Mar 20  2014 networking.conf
-rw-r--r--  1 root root 1109 May  8  2014 network-interface.conf
-rw-r--r--  1 root root  530 Mar 20  2014 network-interface-container.conf
-rw-r--r--  1 root root 1756 May  4  2013 network-interface-security.conf
-rw-r--r--  1 root root  534 Feb 16  2014 passwd.conf
-rw-r--r--  1 root root  519 Mar 13  2014 plymouth.conf
-rw-r--r--  1 root root  326 Mar 13  2014 plymouth-log.conf
-rw-r--r--  1 root root  675 Mar 13  2014 plymouth-ready.conf
-rw-r--r--  1 root root  778 Mar 13  2014 plymouth-shutdown.conf
-rw-r--r--  1 root root  899 Mar 13  2014 plymouth-splash.conf
-rw-r--r--  1 root root  796 Mar 13  2014 plymouth-stop.conf
-rw-r--r--  1 root root  421 Apr 11  2014 plymouth-upstart-bridge.conf
-rw-r--r--  1 root root  363 Jan  6  2014 procps.conf
-rw-r--r--  1 root root  661 Apr 11  2014 rc.conf
-rw-r--r--  1 root root  683 Apr 11  2014 rcS.conf
-rw-r--r--  1 root root 1543 Apr 11  2014 rc-sysinit.conf
-rw-r--r--  1 root root  457 Dec 13  2012 resolvconf.conf
-rw-r--r--  1 root root  426 Apr 18  2013 rsyslog.conf
-rw-r--r--  1 root root  230 Mar 18  2011 setvtrgb.conf
-rw-r--r--  1 root root  277 Apr 11  2014 shutdown.conf
-rw-r--r--  1 root root  641 May  2  2014 ssh.conf
-rw-r--r--  1 root root  711 Mar 12  2014 startpar-bridge.conf
-rw-r--r--  1 root root 1183 Oct 29  2014 systemd-logind.conf
-rw-r--r--  1 root root  348 Apr 11  2014 tty1.conf
-rw-r--r--  1 root root  333 Apr 11  2014 tty2.conf
-rw-r--r--  1 root root  333 Apr 11  2014 tty3.conf
-rw-r--r--  1 root root  333 Apr 11  2014 tty4.conf
-rw-r--r--  1 root root  232 Apr 11  2014 tty5.conf
-rw-r--r--  1 root root  232 Apr 11  2014 tty6.conf
-rw-r--r--  1 root root  337 Apr 14  2014 udev.conf
-rw-r--r--  1 root root  645 Sep 12  2014 udev-fallback-graphics.conf
-rw-r--r--  1 root root  768 Apr 14  2014 udev-finish.conf
-rw-r--r--  1 root root  356 Apr 14  2014 udevmonitor.conf
-rw-r--r--  1 root root  352 Apr 14  2014 udevtrigger.conf
-rw-r--r--  1 root root  473 Feb 28  2014 ufw.conf
-rw-r--r--  1 root root  412 Apr 11  2014 upstart-file-bridge.conf
-rw-r--r--  1 root root  329 Apr 11  2014 upstart-socket-bridge.conf
-rw-r--r--  1 root root  553 Apr 11  2014 upstart-udev-bridge.conf
-rw-r--r--  1 root root  889 Mar 25  2013 ureadahead.conf
-rw-r--r--  1 root root  683 Mar 25  2013 ureadahead-other.conf
-rw-r--r--  1 root root 1521 Apr 11  2014 wait-for-state.conf


[00;31m[-] /lib/systemd/* config file permissions:[00m
/lib/systemd/:
total 736K
drwxr-xr-x 6 root root 4.0K Jul 14  2020 system
-rwxr-xr-x 1 root root  66K Feb 25  2016 systemd-hostnamed
-rwxr-xr-x 1 root root  70K Feb 25  2016 systemd-localed
-rwxr-xr-x 1 root root 254K Feb 25  2016 systemd-logind
-rwxr-xr-x 1 root root  22K Feb 25  2016 systemd-multi-seat-x
-rwxr-xr-x 1 root root  78K Feb 25  2016 systemd-timedated
-rwxr-xr-x 1 root root 230K Feb 25  2016 systemd-udevd

/lib/systemd/system:
total 92K
drwxr-xr-x 2 root root 4.0K Apr 19  2018 dbus.target.wants
drwxr-xr-x 2 root root 4.0K Apr 19  2018 multi-user.target.wants
drwxr-xr-x 2 root root 4.0K Apr 19  2018 sockets.target.wants
drwxr-xr-x 2 root root 4.0K Apr 19  2018 sysinit.target.wants
lrwxrwxrwx 1 root root   21 Apr 19  2018 udev.service -> systemd-udevd.service
-rwxr-xr-x 1 root root  251 Feb 21  2018 open-vm-tools.service
-rw-r--r-- 1 root root  788 Feb 25  2016 systemd-udevd.service
-rw-r--r-- 1 root root  823 Feb 25  2016 systemd-udev-settle.service
-rw-r--r-- 1 root root  715 Feb 25  2016 systemd-udev-trigger.service
-rw-r--r-- 1 root root  578 Feb 25  2016 systemd-udevd-control.socket
-rw-r--r-- 1 root root  575 Feb 25  2016 systemd-udevd-kernel.socket
-rw-r--r-- 1 root root  188 Jan 20  2016 rsync.service
-rw-r--r-- 1 root root  248 Nov  9  2015 wpa_supplicant.service
-rw-r--r-- 1 root root  199 May  6  2015 rsyslog.service
-rw-r--r-- 1 root root  347 Nov 25  2014 dbus.service
-rw-r--r-- 1 root root  106 Nov 25  2014 dbus.socket
-rw-r--r-- 1 root root  344 May  2  2014 ssh.service
-rw-r--r-- 1 root root  196 May  2  2014 ssh@.service
-rw-r--r-- 1 root root  216 May  2  2014 ssh.socket
-rw-r--r-- 1 root root  155 Apr  3  2014 acpid.service
-rw-r--r-- 1 root root  115 Apr  3  2014 acpid.socket
-rw-r--r-- 1 root root  272 Feb  5  2014 sudo.service
-rw-r--r-- 1 root root  124 Oct 21  2013 atd.service
-rw-r--r-- 1 root root  182 Oct 15  2013 polkitd.service

/lib/systemd/system/dbus.target.wants:
total 0
lrwxrwxrwx 1 root root 14 Nov 25  2014 dbus.socket -> ../dbus.socket

/lib/systemd/system/multi-user.target.wants:
total 0
lrwxrwxrwx 1 root root 15 Nov 25  2014 dbus.service -> ../dbus.service

/lib/systemd/system/sockets.target.wants:
total 0
lrwxrwxrwx 1 root root 31 Apr 19  2018 systemd-udevd-control.socket -> ../systemd-udevd-control.socket
lrwxrwxrwx 1 root root 30 Apr 19  2018 systemd-udevd-kernel.socket -> ../systemd-udevd-kernel.socket
lrwxrwxrwx 1 root root 14 Nov 25  2014 dbus.socket -> ../dbus.socket

/lib/systemd/system/sysinit.target.wants:
total 0
lrwxrwxrwx 1 root root 24 Apr 19  2018 systemd-udevd.service -> ../systemd-udevd.service
lrwxrwxrwx 1 root root 31 Apr 19  2018 systemd-udev-trigger.service -> ../systemd-udev-trigger.service


[00;33m### SOFTWARE #############################################[00m
[00;31m[-] Sudo version:[00m
Sudo version 1.8.9p5


[00;31m[-] MYSQL version:[00m
mysql  Ver 14.14 Distrib 5.5.50, for debian-linux-gnu (i686) using readline 6.3


[00;31m[-] Apache version:[00m
Server version: Apache/2.4.7 (Ubuntu)
Server built:   Apr 18 2018 15:36:57


[00;31m[-] Apache user configuration:[00m
APACHE_RUN_USER=www-data
APACHE_RUN_GROUP=www-data


[00;31m[-] Installed Apache modules:[00m
Loaded Modules:
 core_module (static)
 so_module (static)
 watchdog_module (static)
 http_module (static)
 log_config_module (static)
 logio_module (static)
 version_module (static)
 unixd_module (static)
 access_compat_module (shared)
 alias_module (shared)
 auth_basic_module (shared)
 authn_core_module (shared)
 authn_file_module (shared)
 authz_core_module (shared)
 authz_host_module (shared)
 authz_user_module (shared)
 autoindex_module (shared)
 deflate_module (shared)
 dir_module (shared)
 env_module (shared)
 filter_module (shared)
 mime_module (shared)
 mpm_prefork_module (shared)
 negotiation_module (shared)
 php5_module (shared)
 rewrite_module (shared)
 setenvif_module (shared)
 status_module (shared)


[00;33m### INTERESTING FILES ####################################[00m
[00;31m[-] Useful file locations:[00m
/bin/nc
/bin/netcat
/usr/bin/wget
/usr/bin/gcc
/usr/bin/curl


[00;31m[-] Installed compilers:[00m
ii  g++                                4:4.8.2-1ubuntu6                 i386         GNU C++ compiler
ii  g++-4.8                            4.8.4-2ubuntu1~14.04.4           i386         GNU C++ compiler
ii  gcc                                4:4.8.2-1ubuntu6                 i386         GNU C compiler
ii  gcc-4.8                            4.8.4-2ubuntu1~14.04.4           i386         GNU C compiler


[00;31m[-] Can we read/write sensitive files:[00m
-rw-r--r-- 1 root root 1149 Jul 20  2020 /etc/passwd
-rw-r--r-- 1 root root 659 Apr 20  2018 /etc/group
-rw-r--r-- 1 root root 665 Feb 19  2014 /etc/profile
-rw-r----- 1 root shadow 862 Jul 20  2020 /etc/shadow


[00;31m[-] SUID files:[00m
-rwsr-xr-x 1 root root 38932 May  7  2014 /bin/ping
-rwsr-xr-x 1 root root 43316 May  7  2014 /bin/ping6
-rwsr-xr-x 1 root root 30112 May 15  2015 /bin/fusermount
-rwsr-xr-x 1 root root 88752 Sep  2  2015 /bin/mount
-rwsr-xr-x 1 root root 35300 Jan 26  2016 /bin/su
-rwsr-xr-x 1 root root 67704 Sep  2  2015 /bin/umount
-rwsr-xr-x 1 root root 35916 Jan 26  2016 /usr/bin/chsh
-rwsr-xr-x 1 root root 45420 Jan 26  2016 /usr/bin/passwd
-rwsr-xr-x 1 root root 156708 Aug 27  2015 /usr/bin/sudo
-rwsr-xr-x 1 root root 18136 May  7  2014 /usr/bin/traceroute6.iputils
-rwsr-xr-x 1 root root 44620 Jan 26  2016 /usr/bin/chfn
-rwsr-xr-x 1 root root 30984 Jan 26  2016 /usr/bin/newgrp
-rwsr-sr-x 1 daemon daemon 46652 Oct 21  2013 /usr/bin/at
-rwsr-xr-x 1 root root 18168 Nov 24  2015 /usr/bin/pkexec
-rwsr-xr-x 1 root root 72860 Oct 21  2013 /usr/bin/mtr
-rwsr-xr-x 1 root root 66284 Jan 26  2016 /usr/bin/gpasswd
-rwsr-xr-x 1 root root 5480 Feb 25  2014 /usr/lib/eject/dmcrypt-get-device
-rwsr-xr-x 1 root root 9808 Nov 24  2015 /usr/lib/policykit-1/polkit-agent-helper-1
-rwsr-xr-- 1 root messagebus 333952 Nov 25  2014 /usr/lib/dbus-1.0/dbus-daemon-launch-helper
-rwsr-xr-x 1 root root 492972 Mar  4  2019 /usr/lib/openssh/ssh-keysign
-rwsr-xr-- 1 root dip 323000 Apr 21  2015 /usr/sbin/pppd
-rwsr-sr-x 1 libuuid libuuid 17996 Sep  2  2015 /usr/sbin/uuidd


[00;31m[-] SGID files:[00m
-rwxr-sr-x 1 root shadow 53516 Jan 26  2016 /usr/bin/chage
-rwxr-sr-x 1 root mail 13960 Dec  7  2013 /usr/bin/dotlockfile
-rwxr-sr-x 1 root tty 9748 Jun  4  2013 /usr/bin/bsd-write
-rwxr-sr-x 3 root mail 9704 Dec  3  2012 /usr/bin/mail-lock
-rwxr-sr-x 3 root mail 9704 Dec  3  2012 /usr/bin/mail-touchlock
-rwxr-sr-x 1 root tty 18056 Sep  2  2015 /usr/bin/wall
-rwsr-sr-x 1 daemon daemon 46652 Oct 21  2013 /usr/bin/at
-rwxr-sr-x 1 root utmp 406700 Nov  7  2013 /usr/bin/screen
-rwxr-sr-x 1 root shadow 18208 Jan 26  2016 /usr/bin/expiry
-rwxr-sr-x 1 root crontab 34824 Feb  9  2013 /usr/bin/crontab
-rwxr-sr-x 1 root ssh 329144 Mar  4  2019 /usr/bin/ssh-agent
-rwxr-sr-x 3 root mail 9704 Dec  3  2012 /usr/bin/mail-unlock
-rwxr-sr-x 1 root mlocate 34452 Jun 20  2013 /usr/bin/mlocate
-rwsr-sr-x 1 libuuid libuuid 17996 Sep  2  2015 /usr/sbin/uuidd
-rwxr-sr-x 1 root shadow 30432 Mar 16  2016 /sbin/unix_chkpwd


[-] Can't search *.conf files as no keyword was entered

[-] Can't search *.php files as no keyword was entered

[-] Can't search *.log files as no keyword was entered

[-] Can't search *.ini files as no keyword was entered

[00;31m[-] All *.conf files in /etc (recursive 1 level):[00m
-rw-r--r-- 1 root root 191 Dec  4  2013 /etc/libaudit.conf
-rw-r--r-- 1 root root 475 Feb 19  2014 /etc/nsswitch.conf
-rw-r--r-- 1 root root 552 Jan 31  2014 /etc/pam.conf
-rw-r--r-- 1 root root 321 Jun 20  2013 /etc/updatedb.conf
-rw-r--r-- 1 root root 7788 Apr 19  2018 /etc/ca-certificates.conf
-rw-r----- 1 root fuse 280 May 24  2013 /etc/fuse.conf
-rw-r--r-- 1 root root 2981 Aug  3  2016 /etc/adduser.conf
-rw-r--r-- 1 root root 1260 Jun 30  2013 /etc/ucf.conf
-rw-r--r-- 1 root root 144 Apr 19  2018 /etc/kernel-img.conf
-rw-r--r-- 1 root root 34 Aug  3  2016 /etc/ld.so.conf
-rw-r--r-- 1 root root 14867 May  9  2014 /etc/ltrace.conf
-rw-r--r-- 1 root root 2584 Oct 10  2012 /etc/gai.conf
-rw-r--r-- 1 root root 771 May 18  2013 /etc/insserv.conf
-rw-r--r-- 1 root root 2969 Feb 23  2014 /etc/debconf.conf
-rw-r--r-- 1 root root 703 Jan 22  2014 /etc/logrotate.conf
-rw-r--r-- 1 root root 321 Apr 16  2014 /etc/blkid.conf
-rw-r--r-- 1 root root 604 Nov  7  2013 /etc/deluser.conf
-rw-r--r-- 1 root root 956 Feb 19  2014 /etc/mke2fs.conf
-rw-r--r-- 1 root root 2084 Mar 31  2013 /etc/sysctl.conf
-rw-r--r-- 1 root root 4781 Nov 15  2013 /etc/hdparm.conf
-rw-r--r-- 1 root root 350 Apr 19  2018 /etc/popularity-contest.conf
-rw-r--r-- 1 root root 92 Feb 19  2014 /etc/host.conf
-rw-r--r-- 1 root root 1320 Aug 19  2014 /etc/rsyslog.conf


[00;31m[-] Current user's history files:[00m
-rw------- 1 tiago tiago 0 Jul 14  2020 /home/tiago/.bash_history


[00;31m[-] Location and contents (if accessible) of .bash_history file(s):[00m
/home/tiago/.bash_history


[00;31m[-] Any interesting mail in /var/mail:[00m
total 8
drwxrwsr-x  2 root mail 4096 Aug  3  2016 .
drwxr-xr-x 13 root root 4096 Apr 19  2018 ..


[00;33m### SCAN COMPLETE ####################################[00m
